Pocket Sans
Font used in a lot of NGPC fighters. This version is pulled from SNK vs. Capcom. This font looks very similar to my Star City design, so I wonder if this is the Helvetica to my Gotham. Will list the differences between the two on the alpha set. Most narrow/wider adjust are 1px difference, will note if larger. Their lowercase set is certain more polished than mine.

U+0020
........
........
........
........
........
........
........
........

U+0021
...#....
...#....
...#....
...#....
...#....
........
...#....
........

U+0022
.##.##..
..#..#..
.#..#...
........
........
........
........
........

U+0023
........
..#..#..
.######.
..#..#..
.######.
..#..#..
........
........

U+0024
..####..
.#..#.#.
.#..#...
..####..
...#..#.
.#.#..#.
..####..
........

U+0025
###...#.
#.#..#..
###.#...
...#....
..#.###.
.#..#.#.
#...###.
........

U+0026
..#.....
.#.#....
.#.#....
..#.....
.#.#.#..
#...#...
.###.##.
........

U+0027
.##.....
..#.....
.#......
........
........
........
........
........

U+0028
...##...
..#.....
.#......
.#......
.#......
..#.....
...##...
........

U+0029
..##....
....#...
.....#..
.....#..
.....#..
....#...
..##....
........

U+002A
........
.#...#..
..#.#...
.#####..
..#.#...
.#...#..
........
........

U+002B
........
...#....
...#....
.#####..
...#....
...#....
........
........

U+002C
........
........
........
........
........
..##....
...#....
..#.....

U+002D
........
........
........
.######.
........
........
........
........

U+002E
........
........
........
........
........
........
.#......
........

U+002F
......#.
.....#..
....#...
...#....
..#.....
.#......
#.......
........

U+0030
.#####..
#....##.
#...#.#.
#..#..#.
#.#...#.
##....#.
.#####..
........

U+0031
...#....
.###....
...#....
...#....
...#....
...#....
.#####..
........

U+0032
.#####..
#.....#.
......#.
....##..
..##....
.#......
#######.
........

U+0033
.#####..
#.....#.
......#.
..####..
......#.
#.....#.
.#####..
........

U+0034
....##..
...#.#..
..#..#..
.#...#..
#....#..
#######.
.....#..
........

U+0035
#######.
#.......
#.......
######..
......#.
#.....#.
.#####..
........

U+0036
.#####..
#.....#.
#.......
######..
#.....#.
#.....#.
.#####..
........

U+0037
#######.
#.....#.
#.....#.
.....#..
....#...
...#....
...#....
........

U+0038
.#####..
#.....#.
#.....#.
.#####..
#.....#.
#.....#.
.#####..
........

U+0039
.#####..
#.....#.
#.....#.
.######.
......#.
#.....#.
.#####..
........

U+003A
........
........
...#....
........
........
........
...#....
........

U+003B
........
........
...#....
........
........
..##....
...#....
..#.....

U+003C
........
....#...
...#....
..#.....
.#......
..#.....
...#....
....#...

U+003D
........
........
.#####..
........
.#####..
........
........
........

U+003E
........
...#....
....#...
.....#..
......#.
.....#..
....#...
...#....

U+003F
..###...
.#...#..
.#...#..
....#...
...#....
........
...#....
........

U+0040
Obviously not part of the original set. Hello MiSTer peeps
........
..####..
..####..
.######.
.######.
..####..
.##..##.
........

U+0041
Same as Star City
...#.... 2368
..#.#... 2369
..#.#... 2370
.#...#.. 2371
.#####.. 2372
#.....#. 2373
#.....#. 2374
........ 2375

U+0042
Narrower
.#####..
.#....#.
.#....#.
.#####..
.#....#.
.#....#.
.#####..
........

U+0043
Narrower
..####..
.#....#.
.#......
.#......
.#......
.#....#.
..####..
........

U+0044
Narrower
.####...
.#...#..
.#....#.
.#....#.
.#....#.
.#...#..
.####...
........

U+0045
Narrower, shorter cross stroke
.######.
.#......
.#......
.#####..
.#......
.#......
.######.
........

U+0046
Narrower, shorter cross stroke
.######.
.#......
.#......
.#####..
.#......
.#......
.#......
........

U+0047
Subtle differences, especially on the cross stroke and swashes
..####..
.#....#.
.#......
.#..###.
.#....#.
.#...##.
..###.#.
........

U+0048
Narrower
.#....#.
.#....#.
.#....#.
.######.
.#....#.
.#....#.
.#....#.
........

U+0049
Has bilateral serifs, where Star City did not
..###...
...#....
...#....
...#....
...#....
...#....
..###...
........

U+004A
Bilateral serif added, arc is 1px taller, but same width as SC
...###..
....#...
....#...
....#...
#...#...
#...#...
.###....
........

U+004B
Narrower, arm starts 1px higher, leg does not change from SC
.#....#.
.#...#..
.#..#...
.#.#....
.##.#...
.#...#..
.#....#.
........

U+004C
Same as SC
.#...... 3072
.#...... 3073
.#...... 3074
.#...... 3075
.#...... 3076
.#...... 3077
.######. 3078
........ 3079

U+004D
Same as SC
#.....#. 3136
##...##. 3137
#.#.#.#. 3138
#..#..#. 3139
#.....#. 3140
#.....#. 3141
#.....#. 3142
........ 3143

U+004E
Narrower, diagonal stroke is shorter, starts 1px lower and ends 2px higher
.#....#.
.##...#.
.#.#..#.
.#..#.#.
.#...##.
.#....#.
.#....#.
........

U+004F
Larger counter, narrower
..####..
.#....#.
.#....#.
.#....#.
.#....#.
.#....#.
..####..
........

U+0050
Narrower, same lobe height
.#####..
.#....#.
.#....#.
.#####..
.#......
.#......
.#......
........

U+0051
Narrower and larger counter, tail the same three pixels in the same location
..####..
.#....#.
.#....#.
.#....#.
.#..#.#.
.#...#..
..###.#.
........

U+0052
Narrower, leg is more rounded
.#####..
.#....#.
.#....#.
.#####..
.#...#..
.#....#.
.#....#.
........

U+0053
Narrower, same beak and finial
..####..
.#....#.
.#......
..####..
......#.
.#....#.
..####..
........

U+0054
Same as SC
#######. 3584
...#.... 3585
...#.... 3586
...#.... 3587
...#.... 3588
...#.... 3589
...#.... 3590
........ 3591

U+0055
Narrower
.#....#. 3648
.#....#. 3649
.#....#. 3650
.#....#. 3651
.#....#. 3652
.#....#. 3653
..####.. 3654
........ 3655

U+0056
Same as SC
#.....#. 3712
#.....#. 3713
.#...#.. 3714
.#...#.. 3715
..#.#... 3716
..#.#... 3717
...#.... 3718
........ 3719

U+0057
Same witdh as SC, but strokes and vertexes are all different 
#.....#. 3776
#..#..#. 3777
#..#..#. 3778
#.#.#.#. 3779
#.#.#.#. 3780
.#...#.. 3781
.#...#.. 3782
........ 3783

U+0058
Same as SC
#.....#. 3840
.#...#.. 3841
..#.#... 3842
...#.... 3843
..#.#... 3844
.#...#.. 3845
#.....#. 3846
........ 3847

U+0059
Same as SC
#.....#. 3904
.#...#.. 3905
..#.#... 3906
...#.... 3907
...#.... 3908
...#.... 3909
...#.... 3910
........ 3911

U+005A
Narrower, forces adjustment to the cross stroke
.######. 3968
.....#.. 3969
....#... 3970
...#.... 3971
..#..... 3972
.#...... 3973
.######. 3974
........ 3975

U+005B
####....
#.......
#.......
#.......
........
........
........
........

U+005C
.#......
..#.....
...#....
....#...
.....#..
......#.
.......#
........

U+005D
........
........
........
......#.
......#.
......#.
...####.
........

U+005E
...#....
..#.#...
.#...#..
........
........
........
........
........

U+005F
........
........
........
........
........
........
.######.
........

U+0060
.##.....
.#......
..#.....
........
........
........
........
........

U+0061
Added tail, wider
........
........
.####...
.....#..
.#####..
#....#..
.####.#.
........

U+0062
Wider, larger lobe, tail removed
#.......
#.......
#####...
#....#..
#....#..
#....#..
#####...
........

U+0063
Wider open counter
........
........
.####...
#....#..
#.......
#....#..
.####...
........

U+0064
Wider, larger lobe, tail extends outward instead of straight down
.....#..
.....#..
.#####..
#....#..
#....#..
#....#..
.####.#.
........

U+0065
Wider
........
........
.####...
#....#..
######..
#.......
.#####..
........

U+0066
Longer cross stroke
...##...
..#.....
..#.....
######..
..#.....
..#.....
..#.....
........

U+0067
Added ear, smaller lobe, shorter decent, wider
........
........
.####.#.
#....#..
.#####..
.....#..
#####...
........

U+0068
Wider, more open counter
#.......
#.......
#.###...
##...#..
#....#..
#....#..
#....#..
........

U+0069
Same as SC, shifted 1px to left
........
...#....
........
...#....
...#....
...#....
...#....
........

U+006A
Wider arc, shorter decent
........
.....#..
........
.....#..
.....#..
#....#..
.####...
........

U+006B
Longer arms and legs, taller
#.......
#.......
#...##..
#..#....
###.....
#..#....
#...##..
........

U+006C
Added ear, shifted 1px to left
..##....
...#....
...#....
...#....
...#....
...#....
...#....
........

U+006D
2px wider
........
........
###.##..
#..#..#.
#..#..#.
#..#..#.
#..#..#.
........

U+006E
More open counter, ear extends out instead of up making over shape 1px wider
........
........
#.###...
.#...#..
.#...#..
.#...#..
.#...#..
........

U+006F
Wider
........
........
.####...
#....#..
#....#..
#....#..
.####...
........

U+0070
Wider, wider but shorter lobe, ear extends out instead of up
........
........
#.####..
.#....#.
.#....#.
.#####..
.#......
........

U+0071
Like SC q was a flipped p, so is the Pocket Sans q. See above for notes.
........
........
.####.#.
#....#..
#....#..
.#####..
.....#..
........

U+0072
Wider, shorter ear making a more open counter
........
........
#.###...
##...#..
#.......
#.......
#.......
........

U+0073
Wider
........
........
.#####..
#.......
.####...
.....#..
#####...
........

U+0074
No arc, centered cross bar, shifted left 1px
...#....
...#....
.#####..
...#....
...#....
...#....
...#....
........

U+0075
More open counter, tail extends out instead of up, adds to width
........
........
#....#..
#....#..
#....#..
#....#..
.####.#.
........

U+0076
Wider, adds to crotch
........
........
#....#..
#....#..
.#..#...
.#..#...
..##....
........

U+0077
Wider vertexes, adds 2px. Overall shape is rounder.
........
........
#.....#.
#..#..#.
#..#..#.
#..#..#.
.##.##..
........

U+0078
Intersect is 1px wider
........
........
#....#..
.#..#...
..##....
.#..#...
#....#..
........

U+0079
Arms are more diagonal, wider, adjusted decent
........
........
.#....#.
..#...#.
...#.#..
....#...
.###....
........

U+007A
1px narrower cross stroke, but overall shape is wider
........
........
.######.
.....#..
...##...
..#.....
.######.
........

U+007B
...##...
..#.....
..#.....
.#......
..#.....
..#.....
...##...
........

U+007C
...#....
...#....
...#....
...#....
...#....
...#....
...#....
........

U+007D
..##....
....#...
....#...
.....#..
....#...
....#...
..##....
........

U+007E
........
........
........
.###..#.
#...##..
........
........
........

U+007F
#######.
#######.
#######.
#######.
#######.
#######.
#######.
........
